D:\Users\Hackathon\workspace_sari\Timebox\src\main\java\com\hackathon\timebox\model\Applicant.java
D:\Users\Hackathon\workspace_sari\Timebox\src\main\java\com\hackathon\controllers\ApplicantServiceImpl.java
D:\Users\Hackathon\workspace_sari\Timebox\src\main\java\com\hackathon\controllers\ApplicantRepoImpl.java
D:\Users\Hackathon\workspace_sari\Timebox\src\main\java\com\hackathon\controllers\ApplicantRepo.java
D:\Users\Hackathon\workspace_sari\Timebox\src\main\java\com\hackathon\timebox\exception\TimeBoxUserNotFoundException.java
D:\Users\Hackathon\workspace_sari\Timebox\src\main\java\com\hackathon\controllers\ApplicantController.java
D:\Users\Hackathon\workspace_sari\Timebox\src\main\java\com\hackathon\timebox\exception\GenericException.java
D:\Users\Hackathon\workspace_sari\Timebox\src\main\java\com\hackathon\controllers\ApplicantService.java
